Robo3t 
-create DB
- name DB
- open shell
	- interface to input commands
	- input 
		- ex. 
				db.users.insertOne(
					{
						"firstName" : "Tony",
						"lastName" : "Stark",
						"userName" : "iAmIronMan",
						"email" : "iloveyou3000@mail.com",
						"password" : "starkIndustries",
						"isAdmin" : true
					}
				);
	- press play button, f5 or control enter


- incase many code in shell, you can highlight the code you want to run